<?xml version="1.0" encoding="UTF-8"?>
<con:resource xmlns:xsi="http://www.w3.org/2001/XMLSchema-instance" xmlns:con="http://eviware.com/soapui/config" name="/albums/{id}" path="/albums/{id}" id="8987593f-8d34-47d8-82f3-c33f0ca646d5">
  <con:settings id="48a17dcc-316a-493c-bc2d-89d079873977">
    <con:setting id="8987593f-8d34-47d8-82f3-c33f0ca646d5fileName">%2Falbums%2F%7Bid%7D</con:setting>
  </con:settings>
  <con:parameters/>
  <con:method name="get-an-album" id="e04e0175-07a2-4ebc-81a8-cf3adc5a98c8" method="GET">
    <con:description>Get Spotify catalog information for a single album.</con:description>
    <con:settings/>
    <con:parameters>
      <con:parameter required="true">
        <con:name>id</con:name>
        <con:style>TEMPLATE</con:style>
      </con:parameter>
      <con:parameter>
        <con:name>market</con:name>
        <con:style>QUERY</con:style>
      </con:parameter>
    </con:parameters>
    <con:representation type="RESPONSE">
      <con:mediaType>application/json</con:mediaType>
      <con:status>200</con:status>
      <con:params/>
      <con:description>Success!</con:description>
      <con:sampleContent>{
  "album_type" : "compilation",
  "total_tracks" : 9,
  "available_markets" : [ "CA", "BR", "IT" ],
  "external_urls" : {
    "spotify" : "string"
  },
  "href" : "string",
  "id" : "2up3OPMp9Tb4dAKM2erWXQ",
  "images" : [ {
    "url" : "https://i.scdn.co/image/ab67616d00001e02ff9ca10b55ce82ae553c8228\n",
    "height" : 300,
    "width" : 300
  } ],
  "name" : "string",
  "release_date" : "1981-12",
  "release_date_precision" : "year",
  "restrictions" : {
    "reason" : "market"
  },
  "type" : "album",
  "uri" : "spotify:album:2up3OPMp9Tb4dAKM2erWXQ",
  "artists" : [ {
    "external_urls" : {
      "spotify" : "string"
    },
    "href" : "string",
    "id" : "string",
    "name" : "string",
    "type" : "artist",
    "uri" : "string"
  } ],
  "tracks" : {
    "href" : "https://api.spotify.com/v1/me/shows?offset=0&amp;limit=20\n",
    "items" : [ {
      "artists" : [ {
        "external_urls" : {
          "spotify" : "string"
        },
        "href" : "string",
        "id" : "string",
        "name" : "string",
        "type" : "artist",
        "uri" : "string"
      } ],
      "available_markets" : [ "string" ],
      "disc_number" : 0,
      "duration_ms" : 0,
      "explicit" : true,
      "external_urls" : {
        "spotify" : "string"
      },
      "href" : "string",
      "id" : "string",
      "is_playable" : true,
      "linked_from" : {
        "external_urls" : {
          "spotify" : "string"
        },
        "href" : "string",
        "id" : "string",
        "type" : "string",
        "uri" : "string"
      },
      "restrictions" : {
        "reason" : "string"
      },
      "name" : "string",
      "preview_url" : "string",
      "track_number" : 0,
      "type" : "string",
      "uri" : "string",
      "is_local" : true
    } ],
    "limit" : 20,
    "next" : "https://api.spotify.com/v1/me/shows?offset=1&amp;limit=1",
    "offset" : 0,
    "previous" : "https://api.spotify.com/v1/me/shows?offset=1&amp;limit=1",
    "total" : 4
  },
  "popularity" : 0,
  "label" : "string",
  "external_ids" : {
    "isrc" : "string",
    "ean" : "string",
    "upc" : "string"
  },
  "genres" : [ "string" ],
  "copyrights" : [ {
    "text" : "string",
    "type" : "string"
  } ]
}</con:sampleContent>
    </con:representation>
    <con:request name="Request 1" id="2f6ae55b-848b-4c0f-9e36-2e2e3f778071" mediaType="application/json">
      <con:settings>
        <con:setting id="com.eviware.soapui.impl.wsdl.WsdlRequest@request-headers">&lt;xml-fragment/></con:setting>
      </con:settings>
      <con:endpoint>https://api.spotify.com/v1</con:endpoint>
      <con:request/>
      <con:originalUri>https://api.spotify.com/v1/albums/</con:originalUri>
      <con:credentials>
        <con:selectedAuthProfile>anna topping spotify</con:selectedAuthProfile>
        <con:authType>No Authorization</con:authType>
      </con:credentials>
      <con:jmsConfig JMSDeliveryMode="PERSISTENT"/>
      <con:parameters>
        <con:entry key="market" value="US"/>
        <con:entry key="id" value="3x1CmNdXWU0DzpTZXFFRZu"/>
      </con:parameters>
    </con:request>
  </con:method>
</con:resource>
