<?xml version="1.0" encoding="UTF-8"?>
<con:restMockAction xmlns:con="http://eviware.com/soapui/config" name="/albums/{id}" method="GET" resourcePath="/albums/{id}" id="0aabcc8e-3c86-4102-9dad-3ae832b0cf24">
  <con:settings id="a59e22fc-2760-4870-b2a8-d1ab923bba56">
    <con:setting id="0aabcc8e-3c86-4102-9dad-3ae832b0cf24fileName">%2Falbums%2F%7Bid%7D</con:setting>
  </con:settings>
  <con:dispatchStyle>SEQUENCE</con:dispatchStyle>
  <con:dispatchConfig/>
  <con:dispatchXPath/>
  <con:routeScript/>
  <con:response name="Response 1" id="7a20911d-6094-427c-aa52-b7142ce83ef3" httpResponseStatus="200" mediaType="application/json" compressedBodyContent="aced00057372002f636f6d2e657669776172652e736f617075692e696d706c2e737570706f72742e436f6d7072657373656456616c7565000b8b02c748eeab0200035a000a636f6d707265737365644c000b636f6d7072657373696f6e74003d4c636f6d2f657669776172652f736f617075692f696d706c2f737570706f72742f436f6d7072657373656456616c756524436f6d7072657373696f6e3b5b0004646174617400025b427870007e72003b636f6d2e657669776172652e736f617075692e696d706c2e737570706f72742e436f6d7072657373656456616c756524436f6d7072657373696f6e00000000000000001200007872000e6a6176612e6c616e672e456e756d000000000000000012000078707400044e4f4e4570" dataSource="">
    <con:settings/>
    <con:responseContent>{
  "album_type" : "compilation",
  "total_tracks" : 9,
  "available_markets" : [ "CA", "BR", "IT" ],
  "external_urls" : {
    "spotify" : "string"
  },
  "href" : "string",
  "id" : "2up3OPMp9Tb4dAKM2erWXQ",
  "images" : [ {
    "url" : "https://i.scdn.co/image/ab67616d00001e02ff9ca10b55ce82ae553c8228\n",
    "height" : 300,
    "width" : 300
  } ],
  "name" : "string",
  "release_date" : "1981-12",
  "release_date_precision" : "year",
  "restrictions" : {
    "reason" : "market"
  },
  "type" : "album",
  "uri" : "spotify:album:2up3OPMp9Tb4dAKM2erWXQ",
  "artists" : [ {
    "external_urls" : {
      "spotify" : "string"
    },
    "href" : "string",
    "id" : "string",
    "name" : "string",
    "type" : "artist",
    "uri" : "string"
  } ],
  "tracks" : {
    "href" : "https://api.spotify.com/v1/me/shows?offset=0&amp;limit=20\n",
    "items" : [ {
      "artists" : [ {
        "external_urls" : {
          "spotify" : "string"
        },
        "href" : "string",
        "id" : "string",
        "name" : "string",
        "type" : "artist",
        "uri" : "string"
      } ],
      "available_markets" : [ "string" ],
      "disc_number" : 0,
      "duration_ms" : 0,
      "explicit" : true,
      "external_urls" : {
        "spotify" : "string"
      },
      "href" : "string",
      "id" : "string",
      "is_playable" : true,
      "linked_from" : {
        "external_urls" : {
          "spotify" : "string"
        },
        "href" : "string",
        "id" : "string",
        "type" : "string",
        "uri" : "string"
      },
      "restrictions" : {
        "reason" : "string"
      },
      "name" : "string",
      "preview_url" : "string",
      "track_number" : 0,
      "type" : "string",
      "uri" : "string",
      "is_local" : true
    } ],
    "limit" : 20,
    "next" : "https://api.spotify.com/v1/me/shows?offset=1&amp;limit=1",
    "offset" : 0,
    "previous" : "https://api.spotify.com/v1/me/shows?offset=1&amp;limit=1",
    "total" : 4
  },
  "popularity" : 0,
  "label" : "string",
  "external_ids" : {
    "isrc" : "string",
    "ean" : "string",
    "upc" : "string"
  },
  "genres" : [ "string" ],
  "copyrights" : [ {
    "text" : "string",
    "type" : "string"
  } ]
}</con:responseContent>
  </con:response>
</con:restMockAction>
